Systeme de notation interne
…
##    Length     Class      Mode 
##      1521 character character

summary(BD$DIVERSITE_FOURNISSEURS) 

##    Length     Class      Mode 
##      1521 character character

BD$EXPERIENCE_MANAGEMENT_MOYENNE_DIRIGEANT[BD$EXPERIENCE_MANAGEMENT_MOYENNE_DIRIGEANT == "Modalite vide" ] <- NA
BD$DIVERSITE_CLIENTS[BD$DIVERSITE_CLIENTS == "Modalite vide" ] <- NA
BD$DIVERSITE_FOURNISSEURS[BD$DIVERSITE_FOURNISSEURS == "Modalite vide" ] <- NA
BD$SUPPORT[BD$SUPPORT == "Modalite vide" ] <- NA
BD

## # A tibble: 1,521 x 40
##     numtiers Annee NUMTIERS_ANNEE defaut DATE_DE_CREATION_T~ DATE_DE_CREATION_E~
##        <dbl> <dbl> <chr>           <dbl> <dttm>              <dttm>             
##  1   5.20e12  2015 5200000007513~      0 2008-01-02 00:00:00 1982-01-05 00:00:00
##  2   5.20e12  2016 5200000007513~      0 2008-01-02 00:00:00 1982-01-05 00:00:00
##  3   5.20e12  2015 5200000007934~      0 1988-05-31 00:00:00 1953-08-05 00:00:00
##  4   5.20e12  2017 5200000007934~      0 1988-05-31 00:00:00 1953-08-05 00:00:00
##  5   5.20e12  2015 5200000008051~      0 1998-10-02 00:00:00 1995-05-22 00:00:00
##  6   5.20e12  2016 5200000008051~      0 1998-10-02 00:00:00 1995-05-22 00:00:00
##  7   5.20e12  2017 5200000008051~      0 1998-10-02 00:00:00 1995-05-22 00:00:00
##  8   5.20e12  2015 5200000008052~      0 1998-10-02 00:00:00 1989-02-14 00:00:00
##  9   5.20e12  2016 5200000008052~      0 1998-10-02 00:00:00 1989-02-14 00:00:00
## 10   5.20e12  2017 5200000008052~      0 1998-10-02 00:00:00 1989-02-14 00:00:00
## # ... with 1,511 more rows, and 34 more variables: CHIFFRE_AFFAIRES <dbl>,
## #   EXCEDENT_BRUT_EXPLOITATION <dbl>, RESULTAT_EXPlOITATION <dbl>,
## #   RESULTAT_NET <dbl>, FINANCEMENT_PERMANENT <dbl>, FONDS_DE_ROULEMENT <dbl>,
## #   BESOIN_FONDS_ROULEMENT <dbl>, CAPITAUX_PROPRES <dbl>, TRESORIE_NETTE <dbl>,
## #   TOTAL_BILAN <dbl>, DETTE_FINANCIERE <dbl>, ACTIF_CIRCULANT <dbl>,
## #   PASSIF_CIRCULANT <dbl>, TOTAL_ACTIF <dbl>, TOTAL_PASSIF <dbl>,
## #   DELAI_REGLEMENT_CLIENTS <dbl>, DELAI_REGLEMENT_FOURNISSEURS <dbl>, ...
…
BD$AGE = round(as.numeric(difftime(Sys.Date(),BD$DATE_DE_CREATION_ENTREP, units = "weeks"))/52.25)
BD

## # A tibble: 1,521 x 41
##     numtiers Annee NUMTIERS_ANNEE defaut DATE_DE_CREATION_T~ DATE_DE_CREATION_E~
##        <dbl> <dbl> <chr>           <dbl> <dttm>              <dttm>             
##  1   5.20e12  2015 5200000007513~      0 2008-01-02 00:00:00 1982-01-05 00:00:00
##  2   5.20e12  2016 5200000007513~      0 2008-01-02 00:00:00 1982-01-05 00:00:00
##  3   5.20e12  2015 5200000007934~      0 1988-05-31 00:00:00 1953-08-05 00:00:00
##  4   5.20e12  2017 5200000007934~      0 1988-05-31 00:00:00 1953-08-05 00:00:00
##  5   5.20e12  2015 5200000008051~      0 1998-10-02 00:00:00 1995-05-22 00:00:00
##  6   5.20e12  2016 5200000008051~      0 1998-10-02 00:00:00 1995-05-22 00:00:00
##  7   5.20e12  2017 5200000008051~      0 1998-10-02 00:00:00 1995-05-22 00:00:00
##  8   5.20e12  2015 5200000008052~      0 1998-10-02 00:00:00 1989-02-14 00:00:00
##  9   5.20e12  2016 5200000008052~      0 1998-10-02 00:00:00 1989-02-14 00:00:00
## 10   5.20e12  2017 5200000008052~      0 1998-10-02 00:00:00 1989-02-14 00:00:00
## # ... with 1,511 more rows, and 35 more variables: CHIFFRE_AFFAIRES <dbl>,
## #   EXCEDENT_BRUT_EXPLOITATION <dbl>, RESULTAT_EXPlOITATION <dbl>,
## #   RESULTAT_NET <dbl>, FINANCEMENT_PERMANENT <dbl>, FONDS_DE_ROULEMENT <dbl>,
## #   BESOIN_FONDS_ROULEMENT <dbl>, CAPITAUX_PROPRES <dbl>, TRESORIE_NETTE <dbl>,
## #   TOTAL_BILAN <dbl>, DETTE_FINANCIERE <dbl>, ACTIF_CIRCULANT <dbl>,
## #   PASSIF_CIRCULANT <dbl>, TOTAL_ACTIF <dbl>, TOTAL_PASSIF <dbl>,
## #   DELAI_REGLEMENT_CLIENTS <dbl>, DELAI_REGLEMENT_FOURNISSEURS <dbl>, ...
…
